{
    "data": [
        {
            "BALANCE": 3210.63,
            "CURRID": "USD",
            "CUSTOMERNAME1": "WebInfo",
            "CUSTOMERNAME2": "Test",
            "CUSTPO": null,
            "INVOICE": "N/A",
            "ORDERDATE": "Thu, 15 Mar 2018 00:00:00 GMT",
            "ORDERDETAILS": [
                {
                    "COORDINATEGRP": "33555",
                    "CUSTOMERSHIPTO": {},
                    "DELIVERY": {},
                    "DESC_1": "White Gold Na Hoku 5-Princess Cut Ring",
                    "DIMDESC_1": "",
                    "FILENAMEONLY": null,
                    "INITQTY": 0,
                    "INVOICE": "N/A",
                    "LOYALTYPOINTS": 3500,
                    "MSTTAXCTRLID": "",
                    "ORDERID": "D400000054",
                    "ORIGINALTRANSACTION": {},
                    "PARENTORDERID": "D400000054",
                    "PKPRICE": 3500,
                    "PRETAXCTRL": null,
                    "PRODUCTCODE": "33555",
                    "QORDERED": 1,
                    "QRESERVED": 1,
                    "QSHIPPED": 0,
                    "RETAILPRICE": 3500,
                    "RETURN": {},
                    "SELLPRICE": 3500,
                    "SERIALNUM": "",
                    "SKUID": "700298",
                    "SPECIALLINETYPE": "L",
                    "TAX1": 310.625,
                    "TAX2": 0,
                    "TAXCTRLID": "D40000000126"
                }
            ],
            "ORDERID": "D400000054",
            "PARENTORDERID": "D400000054",
            "STOREINFO": {
                "STOREADDRESS1": "345 52nd avenue",
                "STOREAREACODE": "212",
                "STORECITY": "MANHATTAN",
                "STORECOUNTRYID": "US",
                "STORENAME": "XYZ Co 0002",
                "STOREPRIMARYTEL": "555-9929",
                "STORESTATEPROV": "NY"
            },
            "SUBTOTAL": 3500,
            "TAX1": 310.63,
            "TAX2": 0,
            "TOTAL": 3810.63
        },
        {
            "BALANCE": 0,
            "CURRID": "USD",
            "CUSTOMERNAME1": "WebInfo",
            "CUSTOMERNAME2": "Test",
            "CUSTPO": null,
            "INVOICE": "D400000035",
            "ORDERDATE": "Thu, 15 Mar 2018 00:00:00 GMT",
            "ORDERDETAILS": [
                {
                    "COORDINATEGRP": "8212096",
                    "CUSTOMERSHIPTO": {},
                    "DELIVERY": {},
                    "DESC_1": "BIKER BOOT",
                    "DIMDESC_1": "BLACK 36",
                    "FILENAMEONLY": null,
                    "INITQTY": 0,
                    "INVOICE": "D400000035",
                    "LOYALTYPOINTS": 225,
                    "MSTTAXCTRLID": "",
                    "ORDERID": "D400000053",
                    "ORIGINALTRANSACTION": {},
                    "PARENTORDERID": "D400000053",
                    "PKPRICE": 225,
                    "PRETAXCTRL": null,
                    "PRODUCTCODE": "8212096_BLACK",
                    "QORDERED": 1,
                    "QRESERVED": 0,
                    "QSHIPPED": 1,
                    "RETAILPRICE": 225,
                    "RETURN": {},
                    "SELLPRICE": 225,
                    "SERIALNUM": "",
                    "SKUID": "30137156",
                    "SPECIALLINETYPE": "",
                    "TAX1": 19.96875,
                    "TAX2": 0,
                    "TAXCTRLID": "D40000000124"
                },
                {
                    "COORDINATEGRP": "UACCN1584",
                    "CUSTOMERSHIPTO": {},
                    "DELIVERY": {},
                    "DESC_1": "100% LEATHER FLAT ZIP UP WALLET",
                    "DIMDESC_1": "IVORY 0",
                    "FILENAMEONLY": null,
                    "INITQTY": 0,
                    "INVOICE": "D400000035",
                    "LOYALTYPOINTS": 40,
                    "MSTTAXCTRLID": "",
                    "ORDERID": "D400000053",
                    "ORIGINALTRANSACTION": {},
                    "PARENTORDERID": "D400000053",
                    "PKPRICE": 40,
                    "PRETAXCTRL": null,
                    "PRODUCTCODE": "ACCESSORIES UNISEX",
                    "QORDERED": 1,
                    "QRESERVED": 0,
                    "QSHIPPED": 1,
                    "RETAILPRICE": 40,
                    "RETURN": {},
                    "SELLPRICE": 40,
                    "SERIALNUM": "",
                    "SKUID": "30052305",
                    "SPECIALLINETYPE": "",
                    "TAX1": 3.55,
                    "TAX2": 0,
                    "TAXCTRLID": "D40000000125"
                }
            ],
            "ORDERID": "D400000053",
            "PARENTORDERID": "D400000053",
            "STOREINFO": {
                "STOREADDRESS1": "345 52nd avenue",
                "STOREAREACODE": "212",
                "STORECITY": "MANHATTAN",
                "STORECOUNTRYID": "US",
                "STORENAME": "XYZ Co 0002",
                "STOREPRIMARYTEL": "555-9929",
                "STORESTATEPROV": "NY"
            },
            "SUBTOTAL": 265,
            "TAX1": 23.52,
            "TAX2": 0,
            "TOTAL": 288.52
        },
        {
            "BALANCE": 0,
            "CURRID": "USD",
            "CUSTOMERNAME1": "WebInfo",
            "CUSTOMERNAME2": "Test",
            "CUSTPO": null,
            "INVOICE": "D400000036",
            "ORDERDATE": "Thu, 15 Mar 2018 00:00:00 GMT",
            "ORDERDETAILS": [
                {
                    "COORDINATEGRP": "8112095",
                    "CUSTOMERSHIPTO": {
                        "ADDRESS1": "1501 GOHIER",
                        "ADDRESS2": "",
                        "AREACODE": null,
                        "CITY": "MONTREAL",
                        "COUNTRYID": "CA",
                        "EMAIL": null,
                        "NAME1": "WebInfo",
                        "NAME2": "Test",
                        "PRIMARYTEL": null,
                        "STATEPROV": "QC",
                        "ZIPCODE": "H4L 3K2"
                    },
                    "DELIVERY": {
                        "DELIVERYDATE": "Sun, 18 Mar 2018 00:00:00 GMT",
                        "DELIVERYSTATUS": "9",
                        "EXPEDITECHARGEID": null,
                        "INVDELID": 100826,
                        "ITEMS": 1,
                        "SHIPPINGCHARGEID": "USA1",
                        "SHIPPINGCHARGES": 25,
                        "SHIPPINGNUMBER": "ABC-21222121-11",
                        "TRANSPORTTYPE": "NA",
                        "WEIGHT": 0
                    },
                    "DESC_1": "LADIES COAT",
                    "DIMDESC_1": "TAN M",
                    "FILENAMEONLY": null,
                    "INITQTY": 0,
                    "INVOICE": "D400000036",
                    "LOYALTYPOINTS": 365,
                    "MSTTAXCTRLID": "",
                    "ORDERID": "D400000055",
                    "ORIGINALTRANSACTION": {},
                    "PARENTORDERID": "D400000055",
                    "PKPRICE": 365,
                    "PRETAXCTRL": null,
                    "PRODUCTCODE": "8112095_TAN",
                    "QORDERED": 1,
                    "QRESERVED": 0,
                    "QSHIPPED": 1,
                    "RETAILPRICE": 365,
                    "RETURN": {},
                    "SELLPRICE": 365,
                    "SERIALNUM": "",
                    "SKUID": "30137990",
                    "SPECIALLINETYPE": "S",
                    "TAX1": 0,
                    "TAX2": 0,
                    "TAXCTRLID": "D40000000129"
                },
                {
                    "COORDINATEGRP": "NA",
                    "CUSTOMERSHIPTO": {
                        "ADDRESS1": "1501 GOHIER",
                        "ADDRESS2": "",
                        "AREACODE": null,
                        "CITY": "MONTREAL",
                        "COUNTRYID": "CA",
                        "EMAIL": null,
                        "NAME1": "WebInfo",
                        "NAME2": "Test",
                        "PRIMARYTEL": null,
                        "STATEPROV": "QC",
                        "ZIPCODE": "H4L 3K2"
                    },
                    "DELIVERY": {
                        "DELIVERYDATE": "Sun, 18 Mar 2018 00:00:00 GMT",
                        "DELIVERYSTATUS": "9",
                        "EXPEDITECHARGEID": null,
                        "INVDELID": 100826,
                        "ITEMS": 1,
                        "SHIPPINGCHARGEID": "USA1",
                        "SHIPPINGCHARGES": 25,
                        "SHIPPINGNUMBER": "ABC-21222121-11",
                        "TRANSPORTTYPE": "NA",
                        "WEIGHT": 0
                    },
                    "DESC_1": "Shipping Charges",
                    "DIMDESC_1": "",
                    "FILENAMEONLY": null,
                    "INITQTY": 0,
                    "INVOICE": "D400000036",
                    "LOYALTYPOINTS": 50,
                    "MSTTAXCTRLID": "",
                    "ORDERID": "D400000055",
                    "ORIGINALTRANSACTION": {},
                    "PARENTORDERID": "D400000055",
                    "PKPRICE": 50,
                    "PRETAXCTRL": null,
                    "PRODUCTCODE": "700545",
                    "QORDERED": 1,
                    "QRESERVED": 0,
                    "QSHIPPED": 1,
                    "RETAILPRICE": 50,
                    "RETURN": {},
                    "SELLPRICE": 50,
                    "SERIALNUM": "",
                    "SKUID": "10000794",
                    "SPECIALLINETYPE": "",
                    "TAX1": 0,
                    "TAX2": 0,
                    "TAXCTRLID": "D40000000130"
                },
                {
                    "COORDINATEGRP": "19477",
                    "CUSTOMERSHIPTO": {},
                    "DELIVERY": {},
                    "DESC_1": "WhiteGold Raindrop Errn w/Blue Akoya Prl",
                    "DIMDESC_1": "",
                    "FILENAMEONLY": null,
                    "INITQTY": 0,
                    "INVOICE": "D400000036",
                    "LOYALTYPOINTS": 599,
                    "MSTTAXCTRLID": "",
                    "ORDERID": "D400000055",
                    "ORIGINALTRANSACTION": {},
                    "PARENTORDERID": "D400000055",
                    "PKPRICE": 599,
                    "PRETAXCTRL": null,
                    "PRODUCTCODE": "19477",
                    "QORDERED": 1,
                    "QRESERVED": 0,
                    "QSHIPPED": 1,
                    "RETAILPRICE": 599,
                    "RETURN": {
                        "Returned_On": "Mon, 09 Apr 2018 00:00:00 GMT",
                        "Returned_onINV": "D400000039",
                        "Returned_onOrder": "D400000058"
                    },
                    "SELLPRICE": 599,
                    "SERIALNUM": "",
                    "SKUID": "700294",
                    "SPECIALLINETYPE": "",
                    "TAX1": 53.16125,
                    "TAX2": 0,
                    "TAXCTRLID": "D40000000127"
                }
            ],
            "ORDERID": "D400000055",
            "PARENTORDERID": "D400000055",
            "STOREINFO": {
                "STOREADDRESS1": "345 52nd avenue",
                "STOREAREACODE": "212",
                "STORECITY": "MANHATTAN",
                "STORECOUNTRYID": "US",
                "STORENAME": "XYZ Co 0002",
                "STOREPRIMARYTEL": "555-9929",
                "STORESTATEPROV": "NY"
            },
            "SUBTOTAL": 964,
            "TAX1": 53.16,
            "TAX2": 0,
            "TOTAL": 1067.16
        },
        {
            "BALANCE": 0,
            "CURRID": "USD",
            "CUSTOMERNAME1": "WebInfo",
            "CUSTOMERNAME2": "Test",
            "CUSTPO": null,
            "INVOICE": "D400000037",
            "ORDERDATE": "Thu, 15 Mar 2018 00:00:00 GMT",
            "ORDERDETAILS": [
                {
                    "COORDINATEGRP": "8112095",
                    "CUSTOMERSHIPTO": {
                        "ADDRESS1": "1501 GOHIER",
                        "ADDRESS2": "",
                        "AREACODE": null,
                        "CITY": "MONTREAL",
                        "COUNTRYID": "CA",
                        "EMAIL": null,
                        "NAME1": "WebInfo",
                        "NAME2": "Test",
                        "PRIMARYTEL": null,
                        "STATEPROV": "QC",
                        "ZIPCODE": "H4L 3K2"
                    },
                    "DELIVERY": {
                        "DELIVERYDATE": null,
                        "DELIVERYSTATUS": "9",
                        "EXPEDITECHARGEID": null,
                        "INVDELID": 100827,
                        "ITEMS": 1,
                        "SHIPPINGCHARGEID": "USA1",
                        "SHIPPINGCHARGES": 0,
                        "SHIPPINGNUMBER": "",
                        "TRANSPORTTYPE": "NA",
                        "WEIGHT": 0
                    },
                    "DESC_1": "LADIES COAT",
                    "DIMDESC_1": "TAN M",
                    "FILENAMEONLY": null,
                    "INITQTY": 0,
                    "INVOICE": "D400000037",
                    "LOYALTYPOINTS": 365,
                    "MSTTAXCTRLID": "",
                    "ORDERID": "D400000056",
                    "ORIGINALTRANSACTION": {},
                    "PARENTORDERID": "D400000056",
                    "PKPRICE": 365,
                    "PRETAXCTRL": null,
                    "PRODUCTCODE": "8112095_TAN",
                    "QORDERED": 1,
                    "QRESERVED": 0,
                    "QSHIPPED": 1,
                    "RETAILPRICE": 365,
                    "RETURN": {},
                    "SELLPRICE": 365,
                    "SERIALNUM": "",
                    "SKUID": "30137990",
                    "SPECIALLINETYPE": "S",
                    "TAX1": 0,
                    "TAX2": 0,
                    "TAXCTRLID": "D40000000131"
                },
                {
                    "COORDINATEGRP": "NA",
                    "CUSTOMERSHIPTO": {
                        "ADDRESS1": "1501 GOHIER",
                        "ADDRESS2": "",
                        "AREACODE": null,
                        "CITY": "MONTREAL",
                        "COUNTRYID": "CA",
                        "EMAIL": null,
                        "NAME1": "WebInfo",
                        "NAME2": "Test",
                        "PRIMARYTEL": null,
                        "STATEPROV": "QC",
                        "ZIPCODE": "H4L 3K2"
                    },
                    "DELIVERY": {
                        "DELIVERYDATE": null,
                        "DELIVERYSTATUS": "9",
                        "EXPEDITECHARGEID": null,
                        "INVDELID": 100827,
                        "ITEMS": 1,
                        "SHIPPINGCHARGEID": "USA1",
                        "SHIPPINGCHARGES": 0,
                        "SHIPPINGNUMBER": "",
                        "TRANSPORTTYPE": "NA",
                        "WEIGHT": 0
                    },
                    "DESC_1": "Shipping Charges",
                    "DIMDESC_1": "",
                    "FILENAMEONLY": null,
                    "INITQTY": 0,
                    "INVOICE": "D400000037",
                    "LOYALTYPOINTS": 50,
                    "MSTTAXCTRLID": "",
                    "ORDERID": "D400000056",
                    "ORIGINALTRANSACTION": {},
                    "PARENTORDERID": "D400000056",
                    "PKPRICE": 50,
                    "PRETAXCTRL": null,
                    "PRODUCTCODE": "700545",
                    "QORDERED": 1,
                    "QRESERVED": 0,
                    "QSHIPPED": 1,
                    "RETAILPRICE": 50,
                    "RETURN": {},
                    "SELLPRICE": 50,
                    "SERIALNUM": "",
                    "SKUID": "10000794",
                    "SPECIALLINETYPE": "",
                    "TAX1": 0,
                    "TAX2": 0,
                    "TAXCTRLID": "D40000000136"
                },
                {
                    "COORDINATEGRP": "700348",
                    "CUSTOMERSHIPTO": {},
                    "DELIVERY": {},
                    "DESC_1": "Van Gogh, The Drinkers, Framed Poster",
                    "DIMDESC_1": "",
                    "FILENAMEONLY": null,
                    "INITQTY": 0,
                    "INVOICE": "D400000037",
                    "LOYALTYPOINTS": 160,
                    "MSTTAXCTRLID": "",
                    "ORDERID": "D400000056",
                    "ORIGINALTRANSACTION": {},
                    "PARENTORDERID": "D400000056",
                    "PKPRICE": 160,
                    "PRETAXCTRL": null,
                    "PRODUCTCODE": "700348",
                    "QORDERED": 1,
                    "QRESERVED": 0,
                    "QSHIPPED": 1,
                    "RETAILPRICE": 160,
                    "RETURN": {},
                    "SELLPRICE": 160,
                    "SERIALNUM": "",
                    "SKUID": "700348",
                    "SPECIALLINETYPE": "",
                    "TAX1": 14.2,
                    "TAX2": 0,
                    "TAXCTRLID": "D40000000135"
                }
            ],
            "ORDERID": "D400000056",
            "PARENTORDERID": "D400000056",
            "STOREINFO": {
                "STOREADDRESS1": "345 52nd avenue",
                "STOREAREACODE": "212",
                "STORECITY": "MANHATTAN",
                "STORECOUNTRYID": "US",
                "STORENAME": "XYZ Co 0002",
                "STOREPRIMARYTEL": "555-9929",
                "STORESTATEPROV": "NY"
            },
            "SUBTOTAL": 550,
            "TAX1": 14.2,
            "TAX2": 0,
            "TOTAL": 589.2
        },
        {
            "BALANCE": 0,
            "CURRID": "USD",
            "CUSTOMERNAME1": "WebInfo",
            "CUSTOMERNAME2": "Test",
            "CUSTPO": null,
            "INVOICE": "D400000038",
            "ORDERDATE": "Fri, 16 Mar 2018 00:00:00 GMT",
            "ORDERDETAILS": [
                {
                    "COORDINATEGRP": "6211002",
                    "CUSTOMERSHIPTO": {
                        "ADDRESS1": "1501 GOHIER",
                        "ADDRESS2": "",
                        "AREACODE": null,
                        "CITY": "MONTREAL",
                        "COUNTRYID": "CA",
                        "EMAIL": null,
                        "NAME1": "WebInfo",
                        "NAME2": "Test",
                        "PRIMARYTEL": null,
                        "STATEPROV": "QC",
                        "ZIPCODE": "H4L 3K2"
                    },
                    "DELIVERY": {
                        "DELIVERYDATE": null,
                        "DELIVERYSTATUS": "9",
                        "EXPEDITECHARGEID": null,
                        "INVDELID": 100828,
                        "ITEMS": 1,
                        "SHIPPINGCHARGEID": "USA1",
                        "SHIPPINGCHARGES": 18.95,
                        "SHIPPINGNUMBER": "",
                        "TRANSPORTTYPE": "NA",
                        "WEIGHT": 0
                    },
                    "DESC_1": "MENS BOOTS",
                    "DIMDESC_1": "TAN 43",
                    "FILENAMEONLY": null,
                    "INITQTY": 0,
                    "INVOICE": "D400000038",
                    "LOYALTYPOINTS": 89.99,
                    "MSTTAXCTRLID": "",
                    "ORDERID": "D400000057",
                    "ORIGINALTRANSACTION": {},
                    "PARENTORDERID": "D400000057",
                    "PKPRICE": 89.99,
                    "PRETAXCTRL": null,
                    "PRODUCTCODE": "6211002_TAN",
                    "QORDERED": 1,
                    "QRESERVED": 0,
                    "QSHIPPED": 1,
                    "RETAILPRICE": 89.99,
                    "RETURN": {},
                    "SELLPRICE": 89.99,
                    "SERIALNUM": "",
                    "SKUID": "30129922",
                    "SPECIALLINETYPE": "S",
                    "TAX1": 0,
                    "TAX2": 0,
                    "TAXCTRLID": "D40000000138"
                },
                {
                    "COORDINATEGRP": "NA",
                    "CUSTOMERSHIPTO": {
                        "ADDRESS1": "1501 GOHIER",
                        "ADDRESS2": "",
                        "AREACODE": null,
                        "CITY": "MONTREAL",
                        "COUNTRYID": "CA",
                        "EMAIL": null,
                        "NAME1": "WebInfo",
                        "NAME2": "Test",
                        "PRIMARYTEL": null,
                        "STATEPROV": "QC",
                        "ZIPCODE": "H4L 3K2"
                    },
                    "DELIVERY": {
                        "DELIVERYDATE": null,
                        "DELIVERYSTATUS": "9",
                        "EXPEDITECHARGEID": null,
                        "INVDELID": 100828,
                        "ITEMS": 1,
                        "SHIPPINGCHARGEID": "USA1",
                        "SHIPPINGCHARGES": 18.95,
                        "SHIPPINGNUMBER": "",
                        "TRANSPORTTYPE": "NA",
                        "WEIGHT": 0
                    },
                    "DESC_1": "Shipping Charges",
                    "DIMDESC_1": "",
                    "FILENAMEONLY": null,
                    "INITQTY": 0,
                    "INVOICE": "D400000038",
                    "LOYALTYPOINTS": 18.95,
                    "MSTTAXCTRLID": "",
                    "ORDERID": "D400000057",
                    "ORIGINALTRANSACTION": {},
                    "PARENTORDERID": "D400000057",
                    "PKPRICE": 18.95,
                    "PRETAXCTRL": null,
                    "PRODUCTCODE": "700545",
                    "QORDERED": 1,
                    "QRESERVED": 0,
                    "QSHIPPED": 1,
                    "RETAILPRICE": 18.95,
                    "RETURN": {},
                    "SELLPRICE": 18.95,
                    "SERIALNUM": "",
                    "SKUID": "10000794",
                    "SPECIALLINETYPE": "",
                    "TAX1": 0,
                    "TAX2": 0,
                    "TAXCTRLID": "D40000000139"
                },
                {
                    "COORDINATEGRP": "500309",
                    "CUSTOMERSHIPTO": {},
                    "DELIVERY": {},
                    "DESC_1": "ZIP BOOT W/ LYCRA STRECTHED BACKING",
                    "DIMDESC_1": "BLACK 7",
                    "FILENAMEONLY": null,
                    "INITQTY": 0,
                    "INVOICE": "D400000038",
                    "LOYALTYPOINTS": 59.99,
                    "MSTTAXCTRLID": "",
                    "ORDERID": "D400000057",
                    "ORIGINALTRANSACTION": {},
                    "PARENTORDERID": "D400000057",
                    "PKPRICE": 59.99,
                    "PRETAXCTRL": null,
                    "PRODUCTCODE": "500309_BLACK",
                    "QORDERED": 1,
                    "QRESERVED": 0,
                    "QSHIPPED": 1,
                    "RETAILPRICE": 189.99,
                    "RETURN": {},
                    "SELLPRICE": 59.99,
                    "SERIALNUM": "",
                    "SKUID": "30102696",
                    "SPECIALLINETYPE": "",
                    "TAX1": 5.3241125,
                    "TAX2": 0,
                    "TAXCTRLID": "D40000000137"
                }
            ],
            "ORDERID": "D400000057",
            "PARENTORDERID": "D400000057",
            "STOREINFO": {
                "STOREADDRESS1": "345 52nd avenue",
                "STOREAREACODE": "212",
                "STORECITY": "MANHATTAN",
                "STORECOUNTRYID": "US",
                "STORENAME": "XYZ Co 0002",
                "STOREPRIMARYTEL": "555-9929",
                "STORESTATEPROV": "NY"
            },
            "SUBTOTAL": 149.98,
            "TAX1": 5.32,
            "TAX2": 0,
            "TOTAL": 174.25
        }
    ],
    "first": "http://interim.dev.multidev.com/v1/orders",
    "last": "http://interim.dev.multidev.com/v1/orders/2",
    "next": "http://interim.dev.multidev.com/v1/orders/2",
    "page": 1,
    "pages": 2,
    "per_page": 5,
    "prev": "",
    "total": 7
}