{
    "data": [
        {
            "BALANCE": 0,
            "CURRID": "USD",
            "CUSTOMERNAME1": "WebInfo",
            "CUSTOMERNAME2": "Test",
            "CUSTPO": null,
            "INVOICE": "D400000039",
            "ORDERDATE": "Mon, 09 Apr 2018 00:00:00 GMT",
            "ORDERDETAILS": [
                {
                    "COORDINATEGRP": "19477",
                    "CUSTOMERSHIPTO": {},
                    "DELIVERY": {},
                    "DESC_1": "WhiteGold Raindrop Errn w/Blue Akoya Prl",
                    "DIMDESC_1": "",
                    "FILENAMEONLY": null,
                    "INITQTY": 0,
                    "INVOICE": "D400000039",
                    "LOYALTYPOINTS": -599,
                    "MSTTAXCTRLID": "",
                    "ORDERID": "D400000058",
                    "ORIGINALTRANSACTION": {
                        "PRETAXCTRL": "D40000000127",
                        "Purchased_On": "Thu, 15 Mar 2018 00:00:00 GMT",
                        "Returned_fromINV": "D400000036"
                    },
                    "PARENTORDERID": "D400000055",
                    "PKPRICE": 599,
                    "PRETAXCTRL": "D40000000127",
                    "PRODUCTCODE": "19477",
                    "QORDERED": -1,
                    "QRESERVED": 0,
                    "QSHIPPED": -1,
                    "RETAILPRICE": 599,
                    "RETURN": {},
                    "SELLPRICE": 599,
                    "SERIALNUM": "",
                    "SKUID": "700294",
                    "SPECIALLINETYPE": "",
                    "TAX1": -53.16125,
                    "TAX2": 0,
                    "TAXCTRLID": "D40000000140"
                }
            ],
            "ORDERID": "D400000058",
            "PARENTORDERID": "D400000055",
            "STOREINFO": {
                "STOREADDRESS1": "345 52nd avenue",
                "STOREAREACODE": "212",
                "STORECITY": "MANHATTAN",
                "STORECOUNTRYID": "US",
                "STORENAME": "XYZ Co 0002",
                "STOREPRIMARYTEL": "555-9929",
                "STORESTATEPROV": "NY"
            },
            "SUBTOTAL": -599,
            "TAX1": -53.16,
            "TAX2": 0,
            "TOTAL": -652.16
        },
        {
            "BALANCE": 0,
            "CURRID": "USD",
            "CUSTOMERNAME1": "WebInfo",
            "CUSTOMERNAME2": "Test",
            "CUSTPO": null,
            "INVOICE": "D400000040",
            "ORDERDATE": "Mon, 09 Apr 2018 00:00:00 GMT",
            "ORDERDETAILS": [
                {
                    "COORDINATEGRP": "SurlyFrames",
                    "CUSTOMERSHIPTO": {},
                    "DELIVERY": {},
                    "DESC_1": "Surly Troll Frameset 22\" Black",
                    "DIMDESC_1": "00030 22",
                    "FILENAMEONLY": null,
                    "INITQTY": 0,
                    "INVOICE": "D400000040",
                    "LOYALTYPOINTS": 425,
                    "MSTTAXCTRLID": "",
                    "ORDERID": "D400000059",
                    "ORIGINALTRANSACTION": {},
                    "PARENTORDERID": "D400000059",
                    "PKPRICE": 525,
                    "PRETAXCTRL": null,
                    "PRODUCTCODE": "13/14",
                    "QORDERED": 1,
                    "QRESERVED": 0,
                    "QSHIPPED": 1,
                    "RETAILPRICE": 525,
                    "RETURN": {},
                    "SELLPRICE": 425,
                    "SERIALNUM": "",
                    "SKUID": "10000263",
                    "SPECIALLINETYPE": "",
                    "TAX1": 37.71875,
                    "TAX2": 0,
                    "TAXCTRLID": "D40000000142"
                }
            ],
            "ORDERID": "D400000059",
            "PARENTORDERID": "D400000059",
            "STOREINFO": {
                "STOREADDRESS1": "345 52nd avenue",
                "STOREAREACODE": "212",
                "STORECITY": "MANHATTAN",
                "STORECOUNTRYID": "US",
                "STORENAME": "XYZ Co 0002",
                "STOREPRIMARYTEL": "555-9929",
                "STORESTATEPROV": "NY"
            },
            "SUBTOTAL": 425,
            "TAX1": 37.72,
            "TAX2": 0,
            "TOTAL": 462.72
        }
    ],
    "first": "http://interim.dev.multidev.com/v1/orders",
    "last": "http://interim.dev.multidev.com/v1/orders/2",
    "next": "",
    "page": 2,
    "pages": 2,
    "per_page": 5,
    "prev": "http://interim.dev.multidev.com/v1/orders",
    "total": 7
}